\relax 
\providecommand\hyper@newdestlabel[2]{}
\@nameuse{bbl@beforestart}
\catcode `"\active 
\providecommand\HyperFirstAtBeginDocument{\AtBeginDocument}
\HyperFirstAtBeginDocument{\ifx\hyper@anchor\@undefined
\global\let\oldcontentsline\contentsline
\gdef\contentsline#1#2#3#4{\oldcontentsline{#1}{#2}{#3}}
\global\let\oldnewlabel\newlabel
\gdef\newlabel#1#2{\newlabelxx{#1}#2}
\gdef\newlabelxx#1#2#3#4#5#6{\oldnewlabel{#1}{{#2}{#3}}}
\AtEndDocument{\ifx\hyper@anchor\@undefined
\let\contentsline\oldcontentsline
\let\newlabel\oldnewlabel
\fi}
\fi}
\global\let\hyper@last\relax 
\gdef\HyperFirstAtBeginDocument#1{#1}
\providecommand\HyField@AuxAddToFields[1]{}
\providecommand\HyField@AuxAddToCoFields[2]{}
\providecommand \oddpage@label [2]{}
\babel@aux{ngerman}{}
\citation{Wind-SST-Data}
\citation{Wind-SST-Data}
\citation{Latif2003}
\citation{Baldenhofer2020(2)}
\citation{Ludescher2020}
\citation{CPC2020}
\citation{Baldenhofer2020(2)}
\citation{Baldenhofer2020(2)}
\@writefile{toc}{\contentsline {section}{\numberline {1}Einleitung}{4}{section.1}\protected@file@percent }
\@writefile{toc}{\contentsline {section}{\numberline {2}Themenhinführung}{4}{section.2}\protected@file@percent }
\newlabel{Kapitel2-Themenhinführung}{{2}{4}{Themenhinführung}{section.2}{}}
\@writefile{toc}{\contentsline {subsection}{\numberline {2.1}Das Phänomen El Ni\~{n}o und El Ni\~{n}o Southern Oscillation (ENSO)}{4}{subsection.2.1}\protected@file@percent }
\citation{Haeseler2016}
\citation{Wind-SST-Data}
\citation{Baldenhofer2020(2)}
\citation{Baldenhofer2020(1)}
\citation{Baldenhofer2020(1)}
\@writefile{lof}{\contentsline {figure}{\numberline {1}{\ignorespaces Verlauf des Southern Oscillation Index (Daten aus \cite  {Wind-SST-Data}) }}{5}{figure.1}\protected@file@percent }
\newlabel{fig:soi_gemessen}{{1}{5}{Verlauf des Southern Oscillation Index (Daten aus \cite {Wind-SST-Data})}{figure.1}{}}
\citation{Baldenhofer2020(2)}
\citation{Latif2006}
\citation{Philander1990}
\citation{Baldenhofer2020(2)}
\@writefile{toc}{\contentsline {subsubsection}{\numberline {2.1.1}Die Neutralphase}{6}{subsubsection.2.1.1}\protected@file@percent }
\newlabel{ElNinoNeutralphase}{{2.1.1}{6}{Die Neutralphase}{subsubsection.2.1.1}{}}
\@writefile{lof}{\contentsline {figure}{\numberline {2}{\ignorespaces Atmosphärische und ozeanische Zirkulation im tropischen Pazifik}}{6}{figure.2}\protected@file@percent }
\newlabel{fig:Neutralzustand}{{2}{6}{Atmosphärische und ozeanische Zirkulation im tropischen Pazifik}{figure.2}{}}
\citation{Baldenhofer2020(2)}
\citation{Latif2006}
\citation{Baldenhofer2020(1)}
\citation{Latif2006}
\citation{Frauen2010}
\citation{Baldenhofer2020(1)}
\@writefile{toc}{\contentsline {subsubsection}{\numberline {2.1.2}Die Warmphase (El Ni\~{n}o)}{7}{subsubsection.2.1.2}\protected@file@percent }
\@writefile{lof}{\contentsline {figure}{\numberline {3}{\ignorespaces Zirkulation im Pazifik während eines El-Ni\~{n}o-Ereignisses}}{7}{figure.3}\protected@file@percent }
\newlabel{fig:El-Nino}{{3}{7}{Zirkulation im Pazifik während eines El-Ni\~{n}o-Ereignisses}{figure.3}{}}
\@writefile{toc}{\contentsline {subsubsection}{\numberline {2.1.3}Die Kaltphase (La Ni\~{n}a)}{7}{subsubsection.2.1.3}\protected@file@percent }
\citation{Baldenhofer2020(1)}
\citation{Baldenhofer2020(1)}
\citation{Baldenhofer2020(1)}
\citation{Wang2012}
\citation{Latif2006}
\@writefile{toc}{\contentsline {subsection}{\numberline {2.2}Geophysikalische Begrifflichkeiten und Phänomene im Rahmen des El Ni\~{n}o}{8}{subsection.2.2}\protected@file@percent }
\newlabel{Begriffe}{{2.2}{8}{Geophysikalische Begrifflichkeiten und Phänomene im Rahmen des El Ni\~{n}o}{subsection.2.2}{}}
\citation{Wang2012}
\citation{Wang2012}
\citation{Wang2012}
\citation{Baldenhofer2020(2)}
\citation{Jin1997}
\citation{Jin1997}
\citation{Burgers2005}
\@writefile{toc}{\contentsline {section}{\numberline {3}Mathematisches ENSO-Modell}{9}{section.3}\protected@file@percent }
\newlabel{Kapitel3-Modell}{{3}{9}{Mathematisches ENSO-Modell}{section.3}{}}
\@writefile{toc}{\contentsline {subsection}{\numberline {3.1}Einführung}{9}{subsection.3.1}\protected@file@percent }
\@writefile{toc}{\contentsline {subsection}{\numberline {3.2}Recharge Oszillationsmodell}{9}{subsection.3.2}\protected@file@percent }
\@writefile{toc}{\contentsline {subsubsection}{\numberline {3.2.1}Modellvorstellung}{10}{subsubsection.3.2.1}\protected@file@percent }
\newlabel{modelle}{{3.2.1}{10}{Modellvorstellung}{subsubsection.3.2.1}{}}
\newlabel{eq:JIN}{{1}{10}{Modellvorstellung}{equation.3.1}{}}
\@writefile{lot}{\contentsline {table}{\numberline {1}{\ignorespaces Parameter des 'Jin-Modells' (\ref  {eq:JIN})}}{10}{table.1}\protected@file@percent }
\newlabel{JinParameter}{{1}{10}{Parameter des 'Jin-Modells' (\ref {eq:JIN})}{table.1}{}}
\citation{Zelle2004}
\newlabel{eq:JINvonBurgers1}{{2}{11}{Modellvorstellung}{equation.3.2}{}}
\newlabel{eq:Burgers3}{{3}{11}{Modellvorstellung}{equation.3.3}{}}
\@writefile{lot}{\contentsline {table}{\numberline {2}{\ignorespaces Parameter des verwendeten 'Burgers-Modells' (\ref  {eq:Burgers3})}}{11}{table.2}\protected@file@percent }
\newlabel{BurgersParameter}{{2}{11}{Parameter des verwendeten 'Burgers-Modells' (\ref {eq:Burgers3})}{table.2}{}}
\@writefile{toc}{\contentsline {subsubsection}{\numberline {3.2.2}Modelldiskussion}{12}{subsubsection.3.2.2}\protected@file@percent }
\newlabel{modelldiskussion}{{3.2.2}{12}{Modelldiskussion}{subsubsection.3.2.2}{}}
\newlabel{eq:Eigenfrequenz}{{4}{12}{Modelldiskussion}{equation.3.4}{}}
\@writefile{lot}{\contentsline {table}{\numberline {3}{\ignorespaces Eigenfrequenzen und Periodendauern der Modelle}}{12}{table.3}\protected@file@percent }
\newlabel{tab:Eigenfrequenzen}{{3}{12}{Eigenfrequenzen und Periodendauern der Modelle}{table.3}{}}
\citation{Zelle2004}
\@writefile{lof}{\contentsline {figure}{\numberline {4}{\ignorespaces Gedämpfte Systeme mit Anfangsbedingungen ($h_{W,0}=-28,5m, h_{E,0}=35,7m, T_{E,0}=2,88^\circ C$)}}{13}{figure.4}\protected@file@percent }
\newlabel{fig:gedämpfe Systeme}{{4}{13}{Gedämpfte Systeme mit Anfangsbedingungen ($h_{W,0}=-28,5m, h_{E,0}=35,7m, T_{E,0}=2,88^\circ C$)}{figure.4}{}}
\citation{Philip2009}
\citation{Frauen2010}
\citation{Frauen2010}
\citation{Wang2012}
\citation{Baldenhofer2020(1)}
\citation{Wyrtki1975}
\citation{Wyrtki1975}
\citation{Wind-SST-Data}
\citation{Baldenhofer2020(2)}
\@writefile{toc}{\contentsline {section}{\numberline {4}Äußere Einflüsse}{14}{section.4}\protected@file@percent }
\newlabel{Kapitel4-externeEinflüsse}{{4}{14}{Äußere Einflüsse}{section.4}{}}
\@writefile{toc}{\contentsline {subsection}{\numberline {4.1}Passatwinde}{14}{subsection.4.1}\protected@file@percent }
\newlabel{passatwinde}{{4.1}{14}{Passatwinde}{subsection.4.1}{}}
\citation{Wind-SST-Data}
\citation{Thermokline-Data}
\newlabel{fig:windzellen}{{5(a)}{15}{Subfigure 5(a)}{subfigure.5.1}{}}
\newlabel{sub@fig:windzellen}{{(a)}{15}{Subfigure 5(a)\relax }{subfigure.5.1}{}}
\newlabel{fig: system-wind}{{5(b)}{15}{Subfigure 5(b)}{subfigure.5.2}{}}
\newlabel{sub@fig: system-wind}{{(b)}{15}{Subfigure 5(b)\relax }{subfigure.5.2}{}}
\@writefile{lof}{\contentsline {figure}{\numberline {5}{\ignorespaces Windeinbindung}}{15}{figure.5}\protected@file@percent }
\@writefile{lof}{\contentsline {subfigure}{\numberline{(a)}{\ignorespaces {Wind-Zirkulationszellen \cite {Baldenhofer2020(2)}}}}{15}{figure.5}\protected@file@percent }
\@writefile{lof}{\contentsline {subfigure}{\numberline{(b)}{\ignorespaces {Berücksichtigung der Zirkulationszellen}}}{15}{figure.5}\protected@file@percent }
\newlabel{fig:Windeinbindung}{{5}{15}{Windeinbindung}{figure.5}{}}
\@writefile{toc}{\contentsline {subsection}{\numberline {4.2}Einbinden der Passatwinde als externe Systemanregung}{15}{subsection.4.2}\protected@file@percent }
\newlabel{Passat-Einbindung}{{4.2}{15}{Einbinden der Passatwinde als externe Systemanregung}{subsection.4.2}{}}
\@writefile{lof}{\contentsline {figure}{\numberline {6}{\ignorespaces Messdaten Winddruck und Themoklinenanomalie für den Zeitraum [01/1980-10/2008]}}{16}{figure.6}\protected@file@percent }
\newlabel{fig:Thermokline_vs_Wind}{{6}{16}{Messdaten Winddruck und Themoklinenanomalie für den Zeitraum [01/1980-10/2008]}{figure.6}{}}
\@writefile{lot}{\contentsline {table}{\numberline {4}{\ignorespaces Ermittelte $\theta $ Parameter}}{16}{table.4}\protected@file@percent }
\newlabel{thetaParameter}{{4}{16}{Ermittelte $\theta $ Parameter}{table.4}{}}
\@writefile{lof}{\contentsline {figure}{\numberline {7}{\ignorespaces Gemessene und mit $\theta $ berechnete Themoklinenhöhe für den Zeitraum [01/1980-10/2008]}}{17}{figure.7}\protected@file@percent }
\newlabel{fig:Thermokline_mess_vs_calc}{{7}{17}{Gemessene und mit $\theta $ berechnete Themoklinenhöhe für den Zeitraum [01/1980-10/2008]}{figure.7}{}}
\citation{Wind-SST-Data}
\@writefile{lof}{\contentsline {figure}{\numberline {8}{\ignorespaces Fehler bei der Berechnung der Thermoklinehöhe aus Wind und $\theta $ }}{18}{figure.8}\protected@file@percent }
\newlabel{fig:theta_selektion}{{8}{18}{Fehler bei der Berechnung der Thermoklinehöhe aus Wind und $\theta $}{figure.8}{}}
\newlabel{eq:SST-Anteile}{{5}{18}{Einbinden der Passatwinde als externe Systemanregung}{equation.4.5}{}}
\newlabel{eq:tradewinds}{{6}{18}{Einbinden der Passatwinde als externe Systemanregung}{equation.4.6}{}}
\@writefile{toc}{\contentsline {subsection}{\numberline {4.3}Darstellung der resultierenden Windanteile über dem Ost- und Westpazifik}{19}{subsection.4.3}\protected@file@percent }
\@writefile{lof}{\contentsline {figure}{\numberline {9}{\ignorespaces Windzusammensetzungen }}{19}{figure.9}\protected@file@percent }
\newlabel{fig:wind_split}{{9}{19}{Windzusammensetzungen}{figure.9}{}}
\@writefile{toc}{\contentsline {section}{\numberline {5}Simulationsergebnisse}{20}{section.5}\protected@file@percent }
\newlabel{Kapitel5-Simulationsergebnisse}{{5}{20}{Simulationsergebnisse}{section.5}{}}
\@writefile{toc}{\contentsline {subsection}{\numberline {5.1}Abbildung des historischen Verlaufs von 1979 bis 2019 mit dem Recharge Oscillator}{20}{subsection.5.1}\protected@file@percent }
\newlabel{Ergebnisse}{{5.1}{20}{Abbildung des historischen Verlaufs von 1979 bis 2019 mit dem Recharge Oscillator}{subsection.5.1}{}}
\newlabel{eq:Burgers3_mit_Passat}{{7}{20}{Abbildung des historischen Verlaufs von 1979 bis 2019 mit dem Recharge Oscillator}{equation.5.7}{}}
\citation{Baldenhofer2020(2)}
\citation{Wang2012}
\citation{Baldenhofer2020(2)}
\@writefile{lof}{\contentsline {figure}{\numberline {10}{\ignorespaces Simulationsergebnis Burgers(3) mit externen Passatwinden angetrieben [01/1979-12/2019]}}{21}{figure.10}\protected@file@percent }
\newlabel{fig:Simmulationsergebnis}{{10}{21}{Simulationsergebnis Burgers(3) mit externen Passatwinden angetrieben [01/1979-12/2019]}{figure.10}{}}
\@writefile{toc}{\contentsline {subsection}{\numberline {5.2}Vergleich der simulierten Werte mit realen Messwerten}{21}{subsection.5.2}\protected@file@percent }
\@writefile{toc}{\contentsline {subsubsection}{\numberline {5.2.1}Vergleich der Thermoklinenhöhenanomalie}{22}{subsubsection.5.2.1}\protected@file@percent }
\@writefile{lof}{\contentsline {figure}{\numberline {11}{\ignorespaces Vergleich Thermoklinenhöhe simmuliert und gemessen [01/1980-10/2008]}}{22}{figure.11}\protected@file@percent }
\newlabel{fig:Vgl_Thermokline}{{11}{22}{Vergleich Thermoklinenhöhe simmuliert und gemessen [01/1980-10/2008]}{figure.11}{}}
\@writefile{toc}{\contentsline {subsubsection}{\numberline {5.2.2}Vergleich der Oberflächenwasser-Temperaturanomalie}{22}{subsubsection.5.2.2}\protected@file@percent }
\citation{Barnston2015}
\citation{Haeseler2016}
\citation{Baldenhofer2020(1)}
\citation{Barnston2015}
\@writefile{lof}{\contentsline {figure}{\numberline {12}{\ignorespaces Vergleich SST simmuliert und gemessen [01/1979-12/2019]}}{23}{figure.12}\protected@file@percent }
\newlabel{fig:Vgl_SST}{{12}{23}{Vergleich SST simmuliert und gemessen [01/1979-12/2019]}{figure.12}{}}
\@writefile{toc}{\contentsline {subsection}{\numberline {5.3}Vergleich mit dem Equatorial Southern Oscillation Index (EQSOI)}{23}{subsection.5.3}\protected@file@percent }
\newlabel{VergleichSOI}{{5.3}{23}{Vergleich mit dem Equatorial Southern Oscillation Index (EQSOI)}{subsection.5.3}{}}
\@writefile{toc}{\contentsline {subsubsection}{\numberline {5.3.1}Überblick gängiger ENSO - Indizes}{23}{subsubsection.5.3.1}\protected@file@percent }
\newlabel{ENSO-Indizes}{{5.3.1}{23}{Überblick gängiger ENSO - Indizes}{subsubsection.5.3.1}{}}
\citation{Haeseler2016}
\citation{Baldenhofer2020(1)}
\citation{Barnston2015}
\citation{Wind-SST-Data}
\@writefile{lof}{\contentsline {figure}{\numberline {13}{\ignorespaces Regionen der verschiedenen ENSO Indizes}}{24}{figure.13}\protected@file@percent }
\newlabel{fig:NinoRegionen}{{13}{24}{Regionen der verschiedenen ENSO Indizes}{figure.13}{}}
\citation{Latif2003}
\citation{Baldenhofer2020(1)}
\@writefile{lof}{\contentsline {figure}{\numberline {14}{\ignorespaces Verlauf der gängigen ENSO Indizes (Daten aus \cite  {Wind-SST-Data})}}{25}{figure.14}\protected@file@percent }
\newlabel{fig:Soi_Eqsoi_Oni}{{14}{25}{Verlauf der gängigen ENSO Indizes (Daten aus \cite {Wind-SST-Data})}{figure.14}{}}
\@writefile{toc}{\contentsline {subsubsection}{\numberline {5.3.2}Definition eines Index anhand Thermoklinenhöhenanomalien T-SOI}{25}{subsubsection.5.3.2}\protected@file@percent }
\newlabel{eq:BerchnungSOI}{{8}{25}{Definition eines Index anhand Thermoklinenhöhenanomalien T-SOI}{equation.5.8}{}}
\citation{Wind-SST-Data}
\citation{Philip2009}
\citation{Frauen2010}
\@writefile{toc}{\contentsline {subsubsection}{\numberline {5.3.3}Vergleich des T-SOI mit dem EQSOI}{26}{subsubsection.5.3.3}\protected@file@percent }
\@writefile{lof}{\contentsline {figure}{\numberline {15}{\ignorespaces Vergleich SOI, SST-Anomalie, Höhendifferenz-Ost-West}}{26}{figure.15}\protected@file@percent }
\newlabel{fig:SOI}{{15}{26}{Vergleich SOI, SST-Anomalie, Höhendifferenz-Ost-West}{figure.15}{}}
\citation{Arens2018}
\@writefile{toc}{\contentsline {subsection}{\numberline {5.4}Prognose}{27}{subsection.5.4}\protected@file@percent }
\newlabel{Kapitel5.4-Prognose}{{5.4}{27}{Prognose}{subsection.5.4}{}}
\@writefile{toc}{\contentsline {subsubsection}{\numberline {5.4.1}Erstellung einer Fourierreihe für die externe Systemanregung}{27}{subsubsection.5.4.1}\protected@file@percent }
\newlabel{eq:Fourierreihe}{{9}{27}{Erstellung einer Fourierreihe für die externe Systemanregung}{equation.5.9}{}}
\citation{Matlab-Fourier}
\@writefile{lot}{\contentsline {table}{\numberline {5}{\ignorespaces Koeffiziernten der Fourierreihe}}{28}{table.5}\protected@file@percent }
\newlabel{tab:Koeffizienten}{{5}{28}{Koeffiziernten der Fourierreihe}{table.5}{}}
\@writefile{lof}{\contentsline {figure}{\numberline {16}{\ignorespaces Fourieranalyse und Fortsetzung [01/1979-10/2044]}}{29}{figure.16}\protected@file@percent }
\newlabel{fig:Fourier_Wind}{{16}{29}{Fourieranalyse und Fortsetzung [01/1979-10/2044]}{figure.16}{}}
\@writefile{toc}{\contentsline {subsubsection}{\numberline {5.4.2}Einbindung der Fourierreihe als externe Systemanregung}{29}{subsubsection.5.4.2}\protected@file@percent }
\newlabel{eq:Burgers3_mit_Fourier}{{10}{29}{Einbindung der Fourierreihe als externe Systemanregung}{equation.5.10}{}}
\citation{Ludescher2020}
\citation{CPC2020}
\citation{Ludescher2020}
\newlabel{fig: simerg}{{17(a)}{30}{Subfigure 17(a)}{subfigure.17.1}{}}
\newlabel{sub@fig: simerg}{{(a)}{30}{Subfigure 17(a)\relax }{subfigure.17.1}{}}
\newlabel{fig:Simulationsergebnis_Fourier}{{17(b)}{30}{Subfigure 17(b)}{subfigure.17.2}{}}
\newlabel{sub@fig:Simulationsergebnis_Fourier}{{(b)}{30}{Subfigure 17(b)\relax }{subfigure.17.2}{}}
\@writefile{lof}{\contentsline {figure}{\numberline {17}{\ignorespaces Simulationsergebnis }}{30}{figure.17}\protected@file@percent }
\@writefile{lof}{\contentsline {subfigure}{\numberline{(a)}{\ignorespaces {Ursprüngliche Simulationsergebnisse}}}{30}{figure.17}\protected@file@percent }
\@writefile{lof}{\contentsline {subfigure}{\numberline{(b)}{\ignorespaces {Prognose mit Fourierreihe 01/1979-10/2030}}}{30}{figure.17}\protected@file@percent }
\newlabel{fig:Simmulationsergebnisse}{{17}{30}{Simulationsergebnis}{figure.17}{}}
\@writefile{toc}{\contentsline {section}{\numberline {6}Diskussion und Ausblick}{30}{section.6}\protected@file@percent }
\newlabel{Kapitel6-Diskussion}{{6}{30}{Diskussion und Ausblick}{section.6}{}}
\bibcite{Arens2018}{1}
\bibcite{Baldenhofer2020(1)}{2}
\bibcite{Baldenhofer2020(2)}{3}
\bibcite{Burgers2005}{4}
\bibcite{Barnston2015}{5}
\bibcite{Frauen2010}{6}
\bibcite{Haeseler2016}{7}
\bibcite{Thermokline-Data}{8}
\bibcite{Jin1997}{9}
\bibcite{Latif2003}{10}
\bibcite{Latif2006}{11}
\bibcite{Ludescher2020}{12}
\bibcite{Matlab-Fourier}{13}
\bibcite{CPC2020}{14}
\bibcite{Wind-SST-Data}{15}
\bibcite{Philander1990}{16}
\@writefile{toc}{\contentsline {section}{\numberline {7}Literatur}{32}{section.7}\protected@file@percent }
\bibcite{Philip2009}{17}
\bibcite{Wang2012}{18}
\bibcite{Wyrtki1975}{19}
\bibcite{Zelle2004}{20}
\newlabel{TotPages}{{33}{33}{}{page.33}{}}
