\relax 
\providecommand\hyper@newdestlabel[2]{}
\catcode `"\active 
\providecommand\HyperFirstAtBeginDocument{\AtBeginDocument}
\HyperFirstAtBeginDocument{\ifx\hyper@anchor\@undefined
\global\let\oldcontentsline\contentsline
\gdef\contentsline#1#2#3#4{\oldcontentsline{#1}{#2}{#3}}
\global\let\oldnewlabel\newlabel
\gdef\newlabel#1#2{\newlabelxx{#1}#2}
\gdef\newlabelxx#1#2#3#4#5#6{\oldnewlabel{#1}{{#2}{#3}}}
\AtEndDocument{\ifx\hyper@anchor\@undefined
\let\contentsline\oldcontentsline
\let\newlabel\oldnewlabel
\fi}
\fi}
\global\let\hyper@last\relax 
\gdef\HyperFirstAtBeginDocument#1{#1}
\providecommand\HyField@AuxAddToFields[1]{}
\providecommand\HyField@AuxAddToCoFields[2]{}
\citation{Baldenhofer2020(1)}
\citation{Wang2012}
\citation{Jin1997}
\citation{Burgers2005}
\providecommand \oddpage@label [2]{}
\babel@aux{english}{}
\@writefile{toc}{\contentsline {section}{\numberline {1}\relax \fontsize  {12}{14}\selectfont  {Content}}{1}{section.1}}
\@writefile{lot}{\contentsline {table}{\numberline {1}{\ignorespaces List of used Parameters}}{1}{table.1}}
\newlabel{eq:BurgersParameter}{{1}{1}{List of used Parameters}{table.1}{}}
\citation{Wyrtki1975}
\citation{Wind-SST-Data}
\citation{Thermokline-Data}
\citation{Baldenhofer2020(2)}
\citation{Frauen2010}
\citation{Philip2009}
\newlabel{eq:extern}{{2}{2}{\large {Content}}{equation.1.2}{}}
\newlabel{eq:system_extern}{{3}{2}{\large {Content}}{equation.1.3}{}}
\@writefile{toc}{\contentsline {section}{\numberline {2}\relax \fontsize  {12}{14}\selectfont  {Methods}}{2}{section.2}}
\@writefile{toc}{\contentsline {section}{\numberline {3}\relax \fontsize  {12}{14}\selectfont  {Discussion and Summary}}{2}{section.3}}
\bibcite{Baldenhofer2020(1)}{1}
\bibcite{Baldenhofer2020(2)}{2}
\bibcite{Burgers2005}{3}
\bibcite{Frauen2010}{4}
\bibcite{Thermokline-Data}{5}
\bibcite{Jin1997}{6}
\bibcite{Wind-SST-Data}{7}
\bibcite{Philip2009}{8}
\bibcite{Wang2012}{9}
\bibcite{Wyrtki1975}{10}
\@writefile{toc}{\contentsline {section}{\numberline {4}References}{3}{section.4}}
\newlabel{TotPages}{{3}{3}{}{page.3}{}}
