YEAR   JAN   FEB   MAR   APR   MAY   JUN   JUL   AUG   SEP   OCT   NOV   DEC    
1979   0.4  -0.2   0.4  -0.5  -0.5   0.6  -1.0  -1.4  -0.8  -0.9  -0.4  -0.4
1980  -0.2   0.3   0.7   0.8   1.0   1.2   1.3   1.3   1.4   1.8   0.9   1.1
1981   1.5   1.7   0.7   1.2   1.4   0.8   1.4   0.2   1.8   0.7   1.4   1.1
1982   0.7   1.1   1.1   0.0   0.3   0.6   0.7   1.0  -0.6  -0.4  -1.3  -2.2
1983  -2.4  -2.5  -3.3  -2.7  -3.4  -1.2  -0.4   0.8   1.3   1.6   0.9   1.4
1984   1.0  -0.2  -0.3   0.1   1.0   1.9   1.8   0.8   0.1   1.4   0.6   1.9
1985   0.8   2.0   1.8   1.5   2.3   1.1   0.4   0.9   1.2  -0.2   0.7   0.3
1986   1.5   0.7   1.3   1.2   0.6   1.1   0.4  -0.3   0.4  -0.5   0.1  -0.2
1987   0.3  -0.3  -1.3  -1.7  -1.8   0.6  -1.0   0.4   0.9   0.4   0.9   0.9
1988   1.1   0.8   1.3   0.5   2.3   1.7   2.3   0.5   1.8   1.8   1.1   1.5
1989   1.0   0.0   1.0   1.9   1.3  -0.0   0.7   0.4  -0.5   1.2   0.4  -0.4
1990   1.2   0.3   1.2   0.7   0.1   0.0  -0.4   0.3   0.0  -0.4   0.4  -0.5
1991   0.1   0.9   0.0   0.5  -0.6  -0.6  -0.0   0.4  -0.7  -0.3  -0.3  -0.7
1992  -2.2  -0.7  -0.8  -0.4  -0.3   0.2   0.2   0.3  -0.7   1.1  -1.0  -0.2
1993  -0.5  -0.0   0.2  -0.7  -0.7  -0.4   0.3  -0.9  -0.3   0.0  -0.0   0.3
1994  -0.1   0.6   0.6   1.2   0.4   0.8   0.5  -0.0  -0.4  -1.3  -1.2  -0.4
1995  -0.3  -0.3   1.0   0.4   0.5  -0.5  -0.0  -0.3  -0.2  -0.2   1.0  -0.3
1996   0.8   1.9   0.9   0.8   1.4   0.2   0.4  -0.3   0.6  -0.1   0.4   1.6
1997  -0.3   1.0   0.3  -0.4  -0.0  -2.3  -0.5  -1.4  -2.5  -3.2  -3.5  -2.5
1998  -2.8  -4.1  -3.1  -3.7  -0.5  -0.7   0.2   0.4  -0.5   0.7   0.4   0.5
1999   0.4  -0.7  -0.7  -0.5  -0.1  -0.6   0.3  -0.3  -0.7   0.3   0.9   0.8
2000   1.3   0.0  -1.0  -0.2  -0.6  -0.2  -0.6   0.5  -0.9   0.6  -0.1   0.3
2001  -0.8   0.3  -1.0   0.2  -0.0   0.3  -0.2   0.8   0.2  -0.1   0.5  -0.0
2002  -0.3  -0.4   0.3   0.4  -0.7  -0.1  -1.1  -0.1  -0.7  -0.1  -0.4  -0.9
2003  -0.2  -0.3  -0.4   0.3   0.3  -1.0  -0.6  -0.4  -0.7  -0.6  -0.6  -0.2
2004  -0.3  -0.1   0.5   0.3   0.0   0.5  -1.1   0.1  -0.3  -0.2  -0.5  -0.2
2005   0.3   0.7  -0.3   0.2  -0.3  -0.8  -0.3  -0.8  -0.1  -0.4   0.4  -0.1
2006  -0.6  -0.3   0.7   0.2  -0.8   0.1  -1.4  -1.2   0.1  -0.6  -1.4  -0.5
2007  -0.4  -0.3   0.4  -0.4  -0.3   0.4  -0.6   0.4   1.4   0.3   1.2   0.1
2008   0.1  -0.4  -0.8  -0.9  -1.0  -0.6  -0.8  -0.9  -0.2  -0.7   0.1  -0.2
2009  -0.5   0.1   0.4   0.4  -0.1  -1.1  -0.2  -0.8   0.4  -1.2  -0.7  -1.6
2010  -0.4  -1.4  -0.8  -0.6  -0.6  -0.2  -0.3  -0.3  -0.3   0.5  -0.4   0.4
2011  -1.0  -1.1  -0.1  -0.9  -1.1  -0.5  -1.0  -0.4   0.4  -0.8   0.2  -0.4
2012  -1.1  -2.9  -0.1  -0.4  -0.7  -1.9  -0.8  -0.5   0.6  -0.5   0.3  -0.5
2013  -0.1  -1.0  -1.0  -0.1  -0.0  -0.5  -0.4  -0.5   0.3  -0.4  -0.4  -0.3
2014  -0.3   0.3  -0.3   0.0  -1.4  -0.8  -0.3  -0.4  -0.1  -0.4  -1.3   0.1
2015  -0.4  -0.4   0.5  -0.5  -1.2  -0.3  -2.1  -0.8  -1.0  -2.0  -1.3  -1.5
2016  -1.5  -0.2  -0.3  -0.3  -0.4  -0.6  -0.5   0.1   0.0  -0.4  -0.6   0.2
2017  -0.6  -1.4   0.0  -0.5  -0.6  -0.8  -0.7  -0.4  -0.0  -0.4   0.2  -0.1
2018   0.1   0.1   1.1   0.4  -0.1  -0.9  -0.3  -0.2  -0.5  -1.9  -0.7  -0.5
2019  -0.5  -0.7   0.4   0.1  -0.6   0.2  -0.5   0.1  -0.6  -0.8  -0.5  -1.1