YEAR   JAN   FEB   MAR   APR   MAY   JUN   JUL   AUG   SEP   OCT   NOV   DEC    
1979  -1.4  -0.4   0.1  -0.2   0.0   0.4  -0.4  -0.2   0.1  -1.1   0.2  -1.1
1980  -0.6  -0.1  -1.8  -1.6  -1.4  -1.3  -0.9  -0.6  -0.7  -0.3  -0.5   0.1
1981  -0.3  -1.3  -1.0  -1.5   0.5  -0.5   0.1   0.5   0.2   0.2   0.8  -0.8
1982  -0.0  -0.6  -1.3  -0.8  -0.9  -1.4  -2.1  -2.5  -2.2  -1.8  -2.3   0.3
1983  -0.7  -0.1  -0.5  -0.1  -0.3  -0.4   0.1   0.5   0.4   0.3  -0.1   0.5
1984   1.3   1.8   1.3   1.7   1.3   0.1   0.3   0.0   0.4  -0.2  -0.3  -0.4
1985  -1.1   0.6  -1.4   0.3   0.2  -0.3   0.0   0.6   0.3   0.1  -0.5  -0.3
1986   0.1  -0.6   1.1  -0.7  -1.2  -0.1  -0.5  -0.3  -1.0  -0.4  -1.4  -2.3
1987  -0.5  -1.8  -0.9  -1.6  -1.5  -0.6  -1.3  -0.5  -0.6  -0.2  -0.4  -0.8
1988  -0.5  -0.5   1.0  -0.0   0.5   0.1   0.5   1.2   1.5   0.5   1.4   0.4
1989   0.8   0.4   0.9   0.3   0.1  -0.0   0.7   0.6   0.7   0.4  -1.2  -0.7
1990  -1.2  -2.1  -2.0  -0.6  -0.0  -0.5  -0.4   0.0   0.1   0.5  -1.7  -1.5
1991  -0.4  -0.2  -1.4  -0.7  -0.6  -0.4  -0.6  -0.5  -1.3  -0.4  -2.0  -1.0
1992  -2.0  -0.7  -0.5  -1.0  -0.3  -0.4  -0.4  -0.3  -0.3  -0.1  -1.0  -0.8
1993  -0.6  -2.2  -1.4  -1.7  -0.3  -0.7  -0.3  -0.6   0.1  -0.3   0.5  -0.3
1994  -0.1   0.2   0.3  -0.0  -0.5  -0.2  -0.8  -1.1  -0.9  -0.8  -1.3  -1.9
1995  -0.6  -0.1   0.3  -1.0  -0.5   0.7   0.7   1.1   0.6   0.8   1.2   0.4
1996   0.5   0.6   0.7   1.1   0.1   0.8   0.5   1.0   0.3   0.9   0.5  -0.7
1997  -0.7   0.4  -3.1  -2.0  -1.8  -1.6  -0.7  -2.5  -2.1  -2.5  -0.0  -0.4
1998  -0.1  -0.1  -0.4   0.8   0.8   1.1   1.4   0.8   1.4   1.2   1.3   1.0
1999   2.3   0.7   2.4   1.8   1.2   0.5   0.6   1.0   0.8   1.8   0.9   1.7
2000   0.7   2.2   1.6   1.9   1.1   1.1   0.4   0.3   0.6   0.6   0.8   0.7
2001   1.9   1.5   1.2   1.1   0.1  -0.3   0.1  -0.1   0.3  -0.3   0.1  -1.4
2002   0.1  -0.9  -0.2  -0.2  -0.7   0.1  -1.0  -1.1  -1.8  -2.0  -0.2  -0.4
2003  -0.4   0.1   0.5  -0.2  -0.1  -0.1   0.2   0.1   0.1   0.1  -0.2   0.8
2004  -0.2   0.2  -0.2  -0.7   0.5  -1.1  -0.2  -0.8  -0.1  -1.0  -0.4  -0.0
2005  -0.4  -1.7   0.0  -0.4   0.2   0.7   0.3  -0.1  -0.1   0.7   0.6   1.6
2006   1.0   0.6   0.4   0.8  -0.3   0.1  -0.9  -0.9  -0.5  -1.2  -0.4   0.8
2007  -0.1   0.3   0.3   0.7   0.1   1.2   0.6   0.6   0.6   0.8   0.5   2.5
2008   0.4   1.8   1.9   1.4   0.7   1.1   1.3   1.4   0.8   1.6   2.3   1.4
2009   1.2   2.1   0.3   0.7   0.2  -0.2  -0.3  -0.2  -0.7  -0.9   0.4  -0.3
2010  -0.4  -0.6   0.1   0.6   1.4   1.2   1.7   1.8   2.1   1.6   2.0   2.1
2011   1.1   0.9   1.6   1.5   0.6   0.9   0.8   0.8   1.5   0.9   1.1   2.3
2012   1.0   1.7   1.2   0.5   0.5   0.4   0.8   0.6  -0.3   0.6   0.8   1.1
2013  -0.1   1.1   0.4   1.5   1.3   0.5   0.6   0.5   0.3  -0.1   1.3   1.6
2014  -0.3  -0.9  -0.6  -0.2   0.3   0.2   0.1   0.1   0.1   0.1   0.8   0.9
2015  -0.2  -0.4  -1.8  -0.6  -1.2  -0.6  -1.5  -1.1  -1.3  -1.1   0.0  -0.1
2016  -0.4   0.1   0.1   0.2   0.7   0.0   0.3   0.1   0.8   0.7   0.8   0.7
2017   0.7   0.6   1.5   0.3   1.0   0.4   0.9   0.8   1.2   0.6   0.8   0.5
2018   1.4  -1.2  -0.8  -0.3   0.3   0.2   0.4  -0.4  -1.1  -0.2  -0.2   0.2
2019  -1.0  -1.6  -0.2   0.7  -1.3   0.5  -0.4  -0.3  -0.7   0.3  -0.5  -0.5