1949     -1.0  -1.0  -1.4  -0.6  -1.5  -0.9  -0.7  -1.0  -0.5  -0.3   0.4  -1.6
 1950      0.2   1.2   0.4  -1.6  -1.2  -1.1  -0.2  -0.4   0.1  -0.4  -0.8  -1.0
 1951      0.6  -0.7  -1.8  -0.8  -0.5  -1.9  -2.2  -1.0  -1.6  -1.5  -2.3  -1.2
 1952     -1.4  -1.6  -1.0  -0.4  -1.3  -0.6  -0.1  -0.7  -1.0  -1.5  -1.3   0.4
 1953      0.6  -0.6  -1.4  -0.6  -1.0  -1.3  -0.7  -1.2  -1.2  -0.5  -0.9  -0.7
 1954     -1.3   0.2  -0.9  -0.5  -1.6  -0.9  -1.2  -0.5  -0.8  -0.1   0.8  -0.6
 1955      0.8  -2.1  -1.8  -1.4  -0.6  -0.3  -0.4  -0.3  -0.1   0.3   0.0   0.7
 1956     -1.1  -1.5  -1.6  -1.5  -1.6  -0.9   0.0  -0.3  -0.7  -0.5  -0.2  -0.9
 1957     -0.4  -2.4  -0.9  -1.7  -1.3  -2.4  -2.6  -3.3  -2.2  -1.0  -2.5  -2.5
 1958     -1.1  -0.6  -2.4  -0.9  -2.2  -1.9  -1.4  -1.7  -1.5  -1.6  -1.3  -0.9
 1959     -0.8  -1.0  -0.5  -2.1  -1.7  -0.9  -1.1  -1.7  -1.9  -1.3  -1.1  -1.9
 1960     -0.4  -0.7  -0.8  -1.2  -1.3  -1.1  -1.1  -1.1  -1.5  -0.3   0.2   0.1
 1961     -0.7  -1.3  -1.0  -1.2  -0.8  -1.5  -0.7  -0.5  -0.8  -1.2   0.0  -0.7
 1962     -0.1   0.0  -0.2   0.2   0.0   0.2  -0.8   0.3  -0.8   0.1  -0.1   0.5
 1963     -0.1   1.4  -1.3  -0.6  -1.5  -0.9  -1.9  -2.3  -1.7  -1.1  -0.3  -1.3
 1964     -1.1  -1.4  -0.5   0.0   0.1   0.2  -0.6  -0.3  -0.8   0.1  -0.8  -0.4
 1965     -0.9  -2.7  -0.8  -0.1  -2.0  -1.2  -2.1  -2.4  -1.8  -1.5  -1.5  -2.9
 1966     -3.1  -1.7  -2.1  -0.9   0.7   0.5  -1.4  -0.5  -0.3  -0.4  -0.5  -0.9
 1967     -1.0  -0.1  -0.5   0.2  -0.6  -0.5  -0.7  -0.4   0.5  -0.2  -0.4   0.0
 1968     -1.3   0.7   0.4   0.7   0.8   0.7  -0.6   0.0  -0.5  -0.8  -0.4  -1.5
 1969     -3.2  -2.4  -0.3  -0.6  -1.7  -1.1  -1.5  -1.1  -2.1  -1.6  -1.6  -1.7
 1970     -0.2  -0.9  -0.9  -0.4   0.2   0.4   0.9  -0.4  -0.3  -0.9   1.0  -1.7
 1971     -0.2  -0.2  -0.2   0.0   0.5   0.7  -0.7   0.2   0.1   0.2   0.2  -1.8
 1972     -1.2  -0.5  -0.8  -0.9  -1.5  -1.7  -2.9  -2.4  -2.5  -2.4  -2.0  -2.2
 1973     -2.2  -0.4  -0.5  -0.3   0.7   0.3   0.6   0.8   1.5   0.6   0.6   1.5
 1974      0.3   0.1   1.1  -0.5   0.2  -0.3   0.2  -0.9   0.5  -0.2  -0.5  -0.9
 1975     -0.9   1.0  -0.2  -0.7   0.5   0.6   0.9   0.9   1.0   0.6   0.6   0.7
 1976     -0.3   1.0  -1.3   0.0   0.2  -1.1  -1.2  -0.8  -0.7  -0.7  -1.4  -2.8
 1977     -1.7  -0.4  -1.4  -0.1   0.3   0.0  -1.5  -0.3   0.2   0.0  -0.4  -0.6
 1978      0.8  -0.2   0.8   0.4  -0.1   0.7  -0.4   0.0   0.1  -0.3  -0.7  -0.1
 1979     -0.5  -0.5  -0.1  -0.5  -0.3   0.6   0.5  -0.9  -1.0  -1.0  -1.7  -1.0
 1980     -1.1  -0.1  -2.2  -0.8  -0.4  -0.1  -0.3   0.4   0.2   0.4   0.3  -0.4
 1981      1.1  -0.8   1.0   0.0   0.5   0.5   0.1   0.6   0.1  -0.2   0.1  -0.5
 1982      0.4  -0.2  -0.6   0.4  -0.5  -1.1  -1.6  -1.3  -0.7  -1.4  -3.1  -2.7
 1983     -3.2  -1.8  -1.0  -1.4  -2.4  -1.5  -2.4  -0.4  -0.4  -0.4   0.7   0.9
 1984      0.6  -1.0   0.5   0.4  -0.2  -0.1  -0.7   0.0   0.2   0.2   1.3  -2.1
 1985      1.2  -0.7  -1.0  -0.4  -0.5  -0.5   0.4   0.4   0.0  -0.4   0.5   1.1
 1986      0.1   1.2   0.2  -0.9  -0.3  -0.6   0.2  -1.3  -0.5   1.2  -1.8  -0.6
 1987     -1.0  -1.8  -0.5  -0.8  -1.1  -1.2  -1.7  -1.6  -0.6  -0.7  -1.0  -1.6
 1988     -0.5  -1.2  -0.3   1.0   0.5   1.8   1.4   1.0   0.7   0.2   1.7   1.6
 1989      0.2   1.1   1.5  -0.7   0.7   1.2   0.9   0.7  -0.3   0.5   0.1   1.9
 1990     -1.8   1.5  -0.3  -0.5  -0.8  -0.5   0.5   0.4   0.0   0.8  -0.4  -0.2
 1991      0.7  -0.3  -0.1  -0.5  -0.2  -0.4  -0.3   0.2  -0.2  -1.3  -0.9  -1.5
 1992     -1.1  -0.3  -1.1  -1.3  -1.8  -2.1  -0.1   0.7  -0.6  -0.7  -0.8  -0.8
 1993      0.4   0.2   0.3  -1.0  -0.3  -1.0  -0.6   0.3   0.5   0.2   0.3  -0.6
 1994      0.1  -0.2   0.7   0.1   0.0  -0.3  -0.7   0.4   0.1  -0.3   0.5  -0.8
 1995     -0.3   0.5  -0.1  -0.9   0.7   0.5  -0.3   0.2   1.2   0.5   1.1   2.3
 1996      0.7  -0.1   0.5   0.6   1.8   1.0   0.7   0.7  -0.7   0.0  -0.2  -0.6
 1997      2.2  -0.7   0.5   0.9  -1.0  -1.0  -2.2  -1.9  -1.8  -1.6  -1.0  -2.1
 1998     -2.4   0.0  -0.7   0.5   0.2   0.4   0.6   0.4   0.5   0.1   0.6   1.5
 1999      1.3   2.0   0.0   1.9   1.7   1.6   1.4   1.2   1.0   1.3   1.7   2.1
 2000      1.5   2.9   0.9   1.0   0.9   0.7   0.0  -0.4   0.6  -0.2   0.0   0.2
 2001      1.3  -1.5   0.7  -0.3   0.5  -0.2   0.4   0.0   0.5   0.2   0.7  -1.1
 2002      0.4   0.5  -0.6  -0.4  -1.1  -0.8   0.1  -1.4  -0.4  -1.7  -1.1  -0.5
 2003     -0.7  -1.2  -0.7   0.2  -0.2   0.4  -0.1   0.2   0.0  -0.1  -0.1  -0.3
 2004      0.3   0.5  -1.5   0.6   0.2   0.0   0.2   0.0   0.0   0.1  -0.1  -0.5
 2005      0.1  -0.6   1.8  -0.2  -0.2  -0.5   0.0   0.0   0.2   1.0   0.8   1.3
 2006      0.1  -0.1   0.2   0.0   1.0   0.4   0.5  -1.0  -0.2  -0.2  -0.5   0.1
 2007     -1.1   0.6  -0.5   1.2   1.0   0.2   0.7   0.9   0.6   1.3   0.0   1.9
 2008      0.9   2.6   1.2   0.1   0.6   0.4   0.8  -0.1  -0.4   1.0   0.7   1.0
 2009      1.2   0.0   0.0   0.0   0.0   0.0  -0.4  -0.7  -0.9  -1.4  -1.7  -0.8
 2010     -2.6  -1.3  -1.1   0.3   0.1   2.3   2.1   1.6   1.2   2.0   2.0   1.5
 2011      0.3   1.3   0.9   1.1   0.2   0.1  -0.3   0.0   1.2   0.9   0.7   0.0
 2012      1.3   0.4  -1.5   0.3  -0.7  -0.4  -1.5   0.2   0.4  -0.1   0.5  -0.6
 2013     -0.5   0.3   0.1   0.5   1.5  -0.1   0.3   0.2  -0.2  -0.1  -0.3  -0.1
 2014     -0.6  -0.9   0.1  -1.0   0.7  -1.0  -0.1   0.5   0.0   0.0  -0.2  -0.9
 2015     -1.0  -0.2  -0.1  -1.4  -1.8  -2.9  -2.1  -2.9  -2.9  -1.8  -3.3  -4.1
 2016     -1.4  -3.2  -0.5  -1.0  -0.1   0.4   0.1  -0.4   0.1  -0.7  -0.4  -0.5
 2017      0.2   0.1  -0.2  -1.0   0.3   0.4   0.8   0.3   0.6  -0.7   0.1   0.4
 2018     -0.2   0.8  -0.9   0.8   0.9   0.5   0.0   0.2  -1.3   0.0  -0.3  -0.9
 2019     -0.7  -0.4  -1.3   0.1  -0.1  -0.7  -0.1  -0.1   0.8   0.0  -0.5  -0.1