1949     -1.7  -0.3  -1.0  -1.0  -1.1  -0.9  -0.6  -0.6  -0.1   0.0   0.2   0.2
 1950      0.9   1.4   0.8  -0.2  -0.4  -0.1  -0.1  -0.2   0.1  -0.3   0.3  -0.5
 1951      0.1   0.3  -1.2  -1.0  -1.3  -1.5  -1.7  -1.1  -1.1  -1.6  -1.8  -1.3
 1952     -1.4  -0.7  -0.5  -1.1  -1.0  -0.6  -0.3  -0.2  -0.7  -0.9  -0.7  -1.0
 1953     -0.2  -1.4  -1.0  -0.7  -1.7  -1.0  -1.0  -0.8  -1.1  -0.8  -1.3  -1.1
 1954      0.2   0.2  -0.2   0.2   0.0   0.1   0.2   0.8   0.4   0.1   0.3   0.6
 1955     -0.2   0.6  -0.5   0.0   0.6   0.5   0.3   0.7   1.0   1.1   1.1   0.9
 1956      0.8   0.4  -0.3   0.4   0.1   0.1   0.7   0.9   0.7   0.2   0.1   0.1
 1957      0.3  -1.1  -0.5  -1.1  -0.8  -1.0  -0.5  -0.9  -0.8  -0.6  -2.0  -0.9
 1958     -1.6  -1.1  -1.2  -0.2  -0.6  -0.2   0.0   0.3   0.1  -0.1  -0.4  -0.6
 1959     -0.8  -0.8   0.0  -0.8   0.0  -0.2  -0.3   0.0  -0.1  -0.4   0.2  -0.4
 1960      0.3   0.2   0.2   0.2   0.1   0.0   0.2   0.4   0.3   0.3   0.3   0.4
 1961     -0.2   0.9  -0.7   0.3   0.4  -0.3   0.2   0.5   0.3  -0.1   0.3   0.9
 1962      1.5   0.3   0.7   0.7   1.1   0.8   0.6   0.5   0.6   1.0   0.4   0.6
 1963      1.0   0.9  -0.1   0.3   0.2  -0.6  -0.6  -0.6  -0.7  -0.9  -0.3  -1.0
 1964     -0.5   0.0   0.2   1.2   1.2   1.0   0.6   1.1   1.2   1.1   0.6   0.2
 1965     -0.2  -0.1   0.0   0.2  -0.5  -1.0  -1.1  -1.0  -0.7  -0.8  -1.2  -0.9
 1966     -2.5  -0.8  -0.6   0.0   0.4  -0.1  -0.1   0.3   0.2   0.1   0.2   0.6
 1967      0.0   0.7   0.2   0.0   0.1   0.3   0.2   0.0   0.4  -0.2  -0.1  -0.4
 1968      0.0   0.2   1.0   0.2   0.8   0.5  -0.1   0.2   0.0  -0.6  -1.1  -0.4
 1969     -1.4  -1.5  -0.4  -0.8  -0.6  -0.7  -1.0  -0.7  -0.6  -0.9  -1.1  -1.2
 1970     -0.7  -0.9   0.1  -0.3   0.7   0.5   0.5   0.6   1.1   0.6   1.1  -0.1
 1971      0.7   1.4   0.5   0.7   1.1   0.6   0.3   0.7   1.0   0.5   0.1  -0.4
 1972     -0.4   0.8  -0.3  -0.9  -1.1  -0.5  -1.4  -1.5  -1.4  -1.9  -1.4  -2.2
 1973     -1.6  -0.9  -0.2   0.4   0.6   0.9   1.2   1.3   1.2   1.6   1.1   1.6
 1974      1.4   1.3   1.1   0.3   0.4   0.2   0.4   0.3   1.0   0.9   0.4   0.0
 1975     -0.4   0.8   0.4   0.5   0.9   0.9   0.9   1.7   1.6   1.3   0.6   1.4
 1976      0.3   1.1  -0.1  -0.2  -0.2  -0.6  -1.0  -0.7  -0.8  -0.4  -0.6  -1.5
 1977     -0.8  -0.2  -1.6  -0.1   0.0   0.1  -0.1  -0.1   0.1  -0.7  -0.9  -1.1
 1978     -0.1  -1.5   0.5  -0.1   0.9   0.9   0.6   0.6   0.4   0.2  -0.9  -0.3
 1979     -1.0  -0.3  -0.1  -0.2  -0.5   0.4  -0.6  -0.5  -0.6  -1.2  -0.9  -1.5
 1980     -0.4  -0.3  -1.9  -0.5  -0.4  -0.3  -0.4  -0.2  -0.1   0.0   0.1   0.1
 1981      0.3  -0.7  -0.4  -0.5   0.6   0.1   0.4   0.4   0.3  -0.2   0.2  -0.9
 1982      0.0  -0.2  -0.4  -0.2  -0.7  -1.5  -1.4  -1.4  -1.4  -1.5  -2.5  -2.3
 1983     -3.5  -2.7  -1.9  -1.4  -1.9  -1.2  -1.5  -0.5  -0.2   0.0  -0.5   0.0
 1984      0.8   0.6   0.3   0.5   0.1   0.2   0.0   0.4   0.2  -0.2   0.5  -0.4
 1985      0.5   1.7  -0.3   0.7   0.5  -0.4  -0.1   0.4   0.2  -0.4   0.1   0.6
 1986      0.6   0.4   0.4  -0.5  -0.4   0.2  -0.3  -0.3  -0.6   0.0  -1.7  -1.4
 1987     -1.4  -2.4  -1.3  -1.5  -1.7  -1.1  -2.0  -1.4  -1.0  -0.9  -1.0  -1.7
 1988     -0.1  -0.6   0.8   0.5   0.5   0.9   0.9   0.7   1.3   0.9   1.3   0.8
 1989      1.3   0.9   1.5   0.1   0.9   0.3   0.8   0.8   0.1   0.4  -0.3   0.5
 1990     -1.0  -0.1  -1.0   0.0   0.0  -0.2   0.1   0.3  -0.1   0.4  -0.5  -0.5
 1991      0.4  -0.6  -0.3  -0.2  -0.3  -0.4  -0.3   0.0  -0.9  -0.7  -1.4  -1.5
 1992     -2.5  -1.1  -1.7  -1.3  -1.1  -0.7  -0.6   0.4  -0.2  -0.3  -1.1  -1.4
 1993     -0.2  -0.7  -0.6  -1.2  -0.5  -1.0  -0.4  -0.8  -0.3  -0.7   0.4  -0.1
 1994      0.4   0.4   0.1   0.1  -0.4   0.0  -0.4  -0.2  -0.6  -0.8  -0.1  -1.2
 1995     -0.7  -0.1  -0.1  -0.4   0.3   0.6   0.3   0.5   0.6   1.0   0.8   1.1
 1996      1.0   0.7   1.0   0.8   0.7   0.7   0.8   0.5   0.7   0.4   0.3   0.1
 1997      1.0   0.3  -0.6  -0.4  -1.1  -1.5  -1.9  -2.3  -2.6  -2.6  -2.2  -2.3
 1998     -2.6  -1.8  -1.5  -0.5   0.0   0.2   0.5   0.2   0.5   0.5   0.9   1.3
 1999      2.4   1.5   2.0   1.8   1.0   0.9   1.2   0.5   0.9   1.3   1.5   2.2
 2000      1.9   2.9   1.5   1.3   0.8   0.7   0.7   0.2   0.7   0.8   1.2   1.2
 2001      1.7   0.6   1.0   0.2   0.4   0.3   0.6   0.4   0.7   0.5   0.7  -1.2
 2002      0.2  -0.4  -0.1   0.2  -0.7  -0.4  -0.3  -1.0  -0.9  -1.0  -0.8  -0.8
 2003     -1.1  -0.6  -0.6   0.2   0.0   0.2  -0.2   0.2  -0.1  -0.1   0.0  -0.2
 2004      0.1   0.4  -0.4   0.3   0.3  -0.6   0.0  -0.2  -0.3  -0.4  -0.2  -0.2
 2005      0.1  -1.1   0.5  -0.8  -0.2   0.1  -0.1   0.0   0.3   0.8   0.7   1.4
 2006      0.8   0.3   0.9   0.4   0.3   0.3   0.0  -0.6  -0.3  -0.8  -0.3   0.5
 2007     -0.8   0.4   0.1   0.7   0.6   1.4   0.6   0.9   1.1   1.4   0.7   2.5
 2008      1.3   2.4   1.6   0.9   0.4   0.3   0.7   0.3   0.1   0.9   1.2   1.4
 2009      1.0   1.0   0.4   0.5   0.7   0.0   0.0   0.1   0.0  -0.8  -0.3  -0.5
 2010     -1.9  -1.2  -0.9  -0.1   1.0   1.5   1.8   1.6   1.6   2.3   2.1   3.0
 2011      1.7   2.0   1.8   1.2   0.4   0.6   0.4   0.5   1.0   1.2   1.4   1.3
 2012      1.8   1.5   0.1   0.2   0.1   0.0  -0.2   0.2   0.4   0.4   0.6   0.6
 2013      0.0   1.1   0.3   0.8   1.2   1.2   1.0   0.5   0.5   0.0   0.6   0.8
 2014     -0.2   0.0   0.0  -0.6   0.4   0.2   0.1   0.1  -0.1   0.1   0.0  -0.1
 2015     -1.0  -0.5  -0.9  -1.1  -1.8  -1.9  -1.7  -2.2  -2.2  -2.1  -2.1  -3.2
 2016     -1.8  -2.6  -1.2  -1.0   0.0  -0.1   0.3   0.4   0.6   0.2   0.2   0.5
 2017      0.8   0.1   0.0  -1.0   0.2  -0.1   0.2   0.5   0.5   0.3   1.5   0.9
 2018      1.3   0.5   0.1   0.9   0.6   0.1   0.4   0.4  -0.7  -0.3  -0.6  -0.2
 2019     -0.6  -1.4  -1.2   0.0  -0.5  -0.3  -0.2   0.0  -0.1   0.1  -0.3   0.0
 2020     -0.1  -0.6   0.4   0.3 999.9 999.9 999.9 999.9 999.9 999.9 999.9 999.9